{
  "project_info": {
    "project_number": "999243580674",
    "firebase_url": "https://paroquia.firebaseio.com",
    "project_id": "project-2297216869628270192",
    "storage_bucket": "project-2297216869628270192.appspot.com"
  },
  "client": [
    {
      "client_info": {
        "mobilesdk_app_id": "1:999243580674:android:06966c5f3d40a16e352e1b",
        "android_client_info": {
          "package_name": "com.example.santabarbara"
        }
      },
      "oauth_client": [
        {
          "client_id": "999243580674-cb482bjth2g5ltcg8nfj1jglee5lloc4.apps.googleusercontent.com",
          "client_type": 1,
          "android_info": {
            "package_name": "com.example.santabarbara",
            "certificate_hash": "24929a989cf4716c62debaf654e421a563d77618"
          }
        },
        {
          "client_id": "999243580674-mgp4rm839m00f87p4m0m08utgoka9gnq.apps.googleusercontent.com",
          "client_type": 3
        }
      ],
      "api_key": [
        {
          "current_key": "AIzaSyDrLJSTixX72vvVGhXUax0XCvZS4Jzsj_I"
        }
      ],
      "services": {
        "appinvite_service": {
          "other_platform_oauth_client": [
            {
              "client_id": "110131970568794959687",
              "client_type": 3
            }
          ]
        }
      }
    }
  ],
  "configuration_version": "1"
}