{
    "liturgia": [
        {
            "dia": "2020-05-03",
            "id": 1,
            "data": "2020-05-03",
            "titulo": "4º Domingo de Pascoa",
            "sumario": "O mistério Pascal que celebramos solenemente neste tempo nos insere, pelo poder do Espírito Santo, na vida de Jesus. Com sua morte e ressurreição, o Senhor arrancou-nos do poder do inimigo e nos deu a sua própria vida. Hoje, Jesus, o Bom Pastor, continua a nos defender de todas as falsas propostas que nos desviam do seu caminho. Para que nunca falte pastores ao rebanho do Senhor, rezemos pelas vocações, a fim de que jovens e adultos, ouvindo e atendendo o apelo de Cristo, possam segui-Lo sem medo e com coragem.",
            "subtitulo": "Jornada Mundial de Oração pelas Vocações Presbiterais e Religiosas Ano Missionário",
            "textos": [
                {
                    "id": "ritosiniciais",
                    "titulo": "Ritos Iniciais",
                    "sequencia": 1,
                    "texto": null,
                    "tipo": "grupo",
                    "tipoleitor": null,
                    "referencia": null
                },
                {
                    "id": "canto de entrada",
                    "titulo": "Canto de Entrada",
                    "sequencia": 2,
                    "texto": null,
                    "tipo": "titulo",
                    "tipoleitor": null,
                    "referencia": null
                },
                {
                    "id": "1",
                    "titulo": "a",
                    "sequencia": 1,
                    "texto": "Jesus Cristo, nossa Páscoa, ressuscitou e hoje vive. / Celebremos, pois, a sua festa na alegria da fraternidade.",
                    "tipo": "musica",
                    "tipoleitor": null,
                    "referencia": "canto de entrada"
                },
                {
                    "id": "1",
                    "titulo": "",
                    "sequencia": 1,
                    "texto": "Jesus Cristo está vivo entre nós. / Aleluia! Aleluia!",
                    "tipo": "refrao",
                    "tipoleitor": null,
                    "referencia": "canto de entrada"
                }
            ]
        }
    ]
}